{
	"parameters":{
		"perf_paramenter": true,
		"two_apps": false,
		"debug": true,
		"save_results": "blackscholes_perf_21_10_15s",
		"runs": 7,
		"configs_list": "",
		"perf_secs": 10
	},
	"target_apps":[
		{
			"path":"/home/demetrios/Projects/p3arsec/pkgs/apps/blackscholes/inst/arm-linux.gcc-serial/bin/blackscholes",
			"name": "blackscholes",
			"inputs": "1 /home/demetrios/Projects/p3arsec/pkgs/apps/blackscholes/run/in_10M.txt /home/demetrios/Projects/p3arsec/pkgs/apps/blackscholes/run/prices.txt $OUT_FILE"
		}
	]
}

