{
	"parameters":{
		"power_measurement": true,
		"two_apps": false,
		"debug": true,
		"save_results": "bodytrack_roi_halton_02_12",
		"runs": 5,
		"configs_list": "../configurations/frequencies_blackscholes_roi_1.data",
		"roi_measurement": true
	},
	"target_apps":[
		{
			"path":"/home/demetrios/Projects/p3arsec/pkgs/apps/bodytrack/inst/arm-linux.gcc-openmp/bin/bodytrack",
			"name": "bodytrack",
			"inputs": "/home/demetrios/Projects/p3arsec/pkgs/apps/bodytrack/run/sequenceB_261 4 261 4000 5 0 8"
		}
	]
}