{
	"parameters":{
		"power_measurement": true,
		"taskset_affinity":true,
		"two_apps": false,
		"debug": true,
		"save_results": "stressng_halton_20102020",
		"runs": 1,
		"configs_list": "../configurations/frequencies_stressng_halton.data",
		"roi_measurement": false
	},
	"target_apps":[
		{
			"path":"/home/demetrios/Projects/stress-ng/stress-ng",
			"name": "stress-ng",
			"inputs": "--cpu ${THREADS[0]} --cpu-method callfunc -t 100 --taskset ${TASKSETS[0]} -k"
		}
	]
}