1
2
345600,499200,1420800,1420800,345600,1113600,1267200,2035200
499200,1267200,345600,806400,2035200,1728000,2035200,1267200
2
1
652800,1728000,1113600,960000,345600,1420800,652800,345600
960000,499200,1420800,2035200,345600,2035200,1113600,1728000
0
3
960000,345600,1267200,652800,345600,1881600,960000,345600
1267200,806400,345600,499200,960000,2035200,1574400,2035200
1
0
1267200,806400,1728000,960000,499200,1881600,1420800,652800
1728000,652800,345600,960000,1881600,499200,1574400,345600
2
3
1574400,499200,345600,1267200,345600,2035200,1728000,960000
345600,1728000,345600,1267200,960000,1420800,1881600,499200
0
1
1881600,1267200,345600,1267200,1113600,2035200,1267200
499200,1574400,1113600,345600,806400,345600,960000
1
4
345600,1113600,652800,1881600,806400,345600,1574400
960000,652800,1574400,345600,1728000,806400,1420800
2
0
345600,1881600,1420800,345600,1574400,1113600,1881600
1420800,345600,960000,652800,1574400,345600,1728000
0
2
652800,806400,1728000,1574400,499200,1420800,345600
1728000,345600,1420800,1728000,1420800,652800,345600
1
1
960000,345600,2035200,652800,345600,1728000,345600
345600,1267200,1728000,1420800,499200,960000,652800
2
4
1267200,806400,1728000,960000,499200,1420800,652800
652800,1574400,1267200,1881600,806400,499200,1113600
1
3
1881600,1574400,806400,1574400,1267200,652800
1420800,1881600,1113600,652800,1113600,345600
2
2
345600,960000,2035200,1881600,806400,806400
1881600,1113600,806400,1113600,345600,652800
0
4
499200,1881600,1420800,345600,1728000,1113600
345600,960000,1881600,1420800,345600,1113600
